tinker_comprehensive.vcd
$date
	Fri Apr 10 09:18:40 2026
$end
$version
	Icarus Verilog
$end
$timescale
	1ps
$end
$scope module tb_tinker $end
$var parameter 5 ! OP_ADD $end
$var parameter 5 " OP_ADDF $end
$var parameter 5 # OP_ADDI $end
$var parameter 5 $ OP_AND $end
$var parameter 5 % OP_BR $end
$var parameter 5 & OP_BRGT $end
$var parameter 5 ' OP_BRNZ $end
$var parameter 5 ( OP_BRR_L $end
$var parameter 5 ) OP_BRR_R $end
$var parameter 5 * OP_CALL $end
$var parameter 5 + OP_DIV $end
$var parameter 5 , OP_DIVF $end
$var parameter 5 - OP_MOV_L $end
$var parameter 5 . OP_MOV_ML $end
$var parameter 5 / OP_MOV_RR $end
$var parameter 5 0 OP_MOV_SM $end
$var parameter 5 1 OP_MUL $end
$var parameter 5 2 OP_MULF $end
$var parameter 5 3 OP_NOT $end
$var parameter 5 4 OP_OR $end
$var parameter 5 5 OP_PRIV $end
$var parameter 5 6 OP_RET $end
$var parameter 5 7 OP_SHFTL $end
$var parameter 5 8 OP_SHFTLI $end
$var parameter 5 9 OP_SHFTR $end
$var parameter 5 : OP_SHFTRI $end
$var parameter 5 ; OP_SUB $end
$var parameter 5 < OP_SUBF $end
$var parameter 5 = OP_SUBI $end
$var parameter 5 > OP_XOR $end
$var reg 1 ? clk $end
$var reg 1 @ reset $end
$var integer 32 A passed_tests [31:0] $end
$var integer 32 B timeout [31:0] $end
$var integer 32 C total_tests [31:0] $end
$scope module uut $end
$var wire 1 ? clk $end
$var wire 1 D mem_read $end
$var wire 1 E mem_write $end
$var wire 64 F r31_val [63:0] $end
$var wire 1 @ reset $end
$var wire 1 G uses_rd_as_a $end
$var wire 1 H use_immediate $end
$var wire 1 I use_fpu_instruction $end
$var wire 64 J stack_addr [63:0] $end
$var wire 64 K rt_val [63:0] $end
$var wire 5 L rt [4:0] $end
$var wire 64 M rs_val [63:0] $end
$var wire 5 N rs [4:0] $end
$var wire 1 O reg_write_en $end
$var wire 64 P reg_write_data [63:0] $end
$var wire 64 Q rd_val [63:0] $end
$var wire 5 R rd [4:0] $end
$var wire 5 S opcode [4:0] $end
$var wire 64 T mem_wdata [63:0] $end
$var wire 64 U mem_read_data [63:0] $end
$var wire 64 V mem_addr [63:0] $end
$var wire 1 W is_branch $end
$var wire 12 X imm [11:0] $end
$var wire 64 Y fpu_res [63:0] $end
$var wire 64 Z alu_res [63:0] $end
$var wire 64 [ alu_input_b [63:0] $end
$var wire 64 \ alu_input_a [63:0] $end
$var parameter 3 ] DECODE $end
$var parameter 3 ^ EXEC $end
$var parameter 3 _ FETCH $end
$var parameter 3 ` MEM $end
$var parameter 3 a WB $end
$var reg 64 b A [63:0] $end
$var reg 64 c ALUOut [63:0] $end
$var reg 64 d B [63:0] $end
$var reg 64 e FPUOut [63:0] $end
$var reg 32 f IR [31:0] $end
$var reg 64 g MDR [63:0] $end
$var reg 64 h RD_LATCH [63:0] $end
$var reg 64 i branch_target [63:0] $end
$var reg 1 j halt $end
$var reg 64 k pc [63:0] $end
$var reg 3 l state [2:0] $end
$var reg 1 m take_branch $end
$scope module alu $end
$var wire 64 n a [63:0] $end
$var wire 64 o b [63:0] $end
$var wire 5 p op [4:0] $end
$var reg 64 q res [63:0] $end
$upscope $end
$scope module decoder $end
$var wire 32 r instruction [31:0] $end
$var wire 1 W is_branch $end
$var wire 1 I use_fpu_instruction $end
$var wire 1 H use_immediate $end
$var wire 5 s rt [4:0] $end
$var wire 5 t rs [4:0] $end
$var wire 5 u rd [4:0] $end
$var wire 5 v opcode [4:0] $end
$var wire 12 w imm [11:0] $end
$upscope $end
$scope module fpu $end
$var wire 64 x a [63:0] $end
$var wire 64 y b [63:0] $end
$var wire 5 z op [4:0] $end
$var reg 1 { G $end
$var reg 1 | LSB $end
$var reg 1 } R $end
$var reg 1 ~ S $end
$var reg 1 !" a_is_inf $end
$var reg 1 "" a_is_nan $end
$var reg 1 #" a_is_zero $end
$var reg 1 $" b_is_inf $end
$var reg 1 %" b_is_nan $end
$var reg 1 &" b_is_zero $end
$var reg 108 '" div_num [107:0] $end
$var reg 11 (" eff_exp_a [10:0] $end
$var reg 11 )" eff_exp_b [10:0] $end
$var reg 11 *" exp_a [10:0] $end
$var reg 11 +" exp_b [10:0] $end
$var reg 11 ," exp_diff [10:0] $end
$var reg 11 -" exp_res [10:0] $end
$var reg 56 ." frac_a [55:0] $end
$var reg 57 /" frac_add_res [56:0] $end
$var reg 56 0" frac_b [55:0] $end
$var reg 53 1" m_a [52:0] $end
$var reg 53 2" m_b [52:0] $end
$var reg 107 3" mul_shift_mask [106:0] $end
$var reg 57 4" raw_div_res [56:0] $end
$var reg 107 5" raw_mul_res [106:0] $end
$var reg 64 6" res [63:0] $end
$var reg 1 7" round_up $end
$var reg 6 8" shift_amt [5:0] $end
$var reg 56 9" shift_mask [55:0] $end
$var reg 1 :" sign_a $end
$var reg 1 ;" sign_b $end
$var reg 1 <" sign_res $end
$var reg 13 =" signed_exp [12:0] $end
$var integer 32 >" i [31:0] $end
$upscope $end
$scope module memory $end
$var wire 64 ?" addr [63:0] $end
$var wire 1 ? clk $end
$var wire 1 D mem_read $end
$var wire 1 E mem_write $end
$var wire 64 @" write_data [63:0] $end
$var wire 64 A" read_data [63:0] $end
$var parameter 32 B" MEM_SIZE $end
$upscope $end
$scope module reg_file $end
$var wire 1 ? clk $end
$var wire 64 C" data [63:0] $end
$var wire 64 D" r31_val [63:0] $end
$var wire 5 E" rd [4:0] $end
$var wire 64 F" rd_val [63:0] $end
$var wire 1 @ reset $end
$var wire 5 G" rs [4:0] $end
$var wire 64 H" rs_val [63:0] $end
$var wire 5 I" rt [4:0] $end
$var wire 64 J" rt_val [63:0] $end
$var wire 1 O write_enable $end
$var integer 32 K" i [31:0] $end
$upscope $end
$upscope $end
$scope task assert_reg $end
$var reg 64 L" expected [63:0] $end
$var reg 5 M" reg_idx [4:0] $end
$var reg 256 N" test_name [255:0] $end
$upscope $end
$scope task write_inst $end
$var reg 64 O" addr [63:0] $end
$var reg 12 P" imm [11:0] $end
$var reg 32 Q" inst [31:0] $end
$var reg 5 R" op [4:0] $end
$var reg 5 S" rd [4:0] $end
$var reg 5 T" rs [4:0] $end
$var reg 5 U" rt [4:0] $end
$upscope $end
$scope task write_mem64 $end
$var reg 64 V" addr [63:0] $end
$var reg 64 W" data [63:0] $end
$upscope $end
$upscope $end
$enddefinitions $end
$comment Show the parameter values. $end
$dumpall
b10000000000000000000 B"
b100 a
b11 `
b0 _
b10 ^
b1 ]
b10 >
b11011 =
b10101 <
b11010 ;
b101 :
b100 9
b111 8
b110 7
b1101 6
b1111 5
b1 4
b11 3
b10110 2
b11100 1
b10011 0
b10001 /
b10000 .
b10010 -
b10111 ,
b11101 +
b1100 *
b1001 )
b1010 (
b1011 '
b1110 &
b1000 %
b0 $
b11001 #
b10100 "
b11000 !
$end
#0
$dumpvars
b111111111110000000000000000000000000000000000000000000000000000 W"
b100100000 V"
b0 U"
b0 T"
b0 S"
b1101 R"
b1101000000000000000000000000000 Q"
b0 P"
b10000010001100 O"
bx N"
bx M"
bx L"
bx K"
bx J"
bx I"
bx H"
bx G"
bx F"
bx E"
bx D"
bx C"
bx A"
bx @"
bx ?"
bx >"
bx ="
x<"
x;"
x:"
bx 9"
bx 8"
x7"
bx 6"
bx 5"
bx 4"
bx 3"
bx 2"
bx 1"
bx 0"
bx /"
bx ."
bx -"
bx ,"
bx +"
bx *"
bx )"
bx ("
bx '"
x&"
x%"
x$"
x#"
x""
x!"
x~
x}
x|
x{
bx z
bx y
bx x
bx w
bx v
bx u
bx t
bx s
bx r
bx q
bx p
bx o
bx n
xm
bx l
bx k
xj
bx i
bx h
bx g
bx f
bx e
bx d
bx c
bx b
bx \
bx [
bx Z
bx Y
bx X
xW
bx V
bx U
bx T
bx S
bx R
bx Q
bx P
xO
bx N
bx M
bx L
bx K
bx J
xI
xH
xG
bx F
xE
xD
b0 C
bx B
b0 A
1@
0?
$end
#5000
b0 U
b0 A"
b0 i
0m
0D
0E
b1111111111111111000 J
b10000000000000000000 F
b10000000000000000000 D"
b10000000000000 k
0O
b0 l
b11111 K"
1?
#10000
0?
#15000
0&"
0$"
0%"
b1 )"
b0 +"
0;"
b101 [
b101 o
b101 y
1H
0I
0W
1G
b101000 0"
bx000 ."
b0 Y
b0 6"
b11001 S
b11001 p
b11001 v
b11001 z
b0 Q
b0 F"
b1 R
b1 u
b1 E"
b0 M
b0 H"
b0 N
b0 t
b0 G"
b0 K
b0 J"
b0 L
b0 s
b0 I"
b101 X
b101 w
b1 l
b10000000000100 k
b11001000010000000000000000000101 f
b11001000010000000000000000000101 r
1?
b1 B
0@
#20000
0?
#25000
b101 Z
b101 q
b0 \
b0 n
b0 T
b0 @"
1#"
0!"
0""
b0 ."
b1 ("
b0 *"
0:"
b10 l
b0 h
b0 d
b0 b
b0 x
b10 B
1?
#30000
0?
#35000
b101 P
b101 C"
b101 V
b101 ?"
1O
b100 l
b0 e
b101 c
b11 B
1?
#40000
0?
#45000
b101 Q
b101 F"
0O
b0 l
b100 B
1?
#50000
0?
#55000
b1010 Z
b1010 q
b1010000 0"
b1010 [
b1010 o
b1010 y
b0 Q
b0 F"
b10 R
b10 u
b10 E"
b1010 X
b1010 w
b1 l
b10000000001000 k
b11001000100000000000000000001010 f
b11001000100000000000000000001010 r
b101 B
1?
#60000
0?
#65000
b10 l
b110 B
1?
#70000
0?
#75000
b1010 P
b1010 C"
b1010 V
b1010 ?"
1O
b100 l
b1010 c
b111 B
1?
#80000
0?
#85000
b1010 Q
b1010 F"
0O
b0 l
b1000 B
1?
#90000
0?
#95000
0H
0G
b0 Z
b0 q
1&"
b0 0"
b0 [
b0 o
b0 y
b11000 S
b11000 p
b11000 v
b11000 z
b0 Q
b0 F"
b11 R
b11 u
b11 E"
b101 M
b101 H"
b1 N
b1 t
b1 G"
b1010 K
b1010 J"
b10 L
b10 s
b10 I"
b0 X
b0 w
b1 l
b10000000001100 k
b11000000110000100010000000000000 f
b11000000110000100010000000000000 r
b1001 B
1?
#100000
0?
#105000
0&"
b1010000 0"
b1111 Z
b1111 q
b1010 [
b1010 o
b1010 y
b101 \
b101 n
b101 T
b101 @"
0#"
b101000 ."
b10 l
b1010 d
b101 b
b101 x
b1010 B
1?
#110000
0?
#115000
b1111 P
b1111 C"
b1111 V
b1111 ?"
1O
b100 l
b1111 c
b1011 B
1?
#120000
0?
#125000
b1111 Q
b1111 F"
0O
b0 l
b1100 B
1?
#130000
0?
#135000
b1111111111111111111111111111111111111111111111111111111111111011 Z
b1111111111111111111111111111111111111111111111111111111111111011 q
b11010 S
b11010 p
b11010 v
b11010 z
b0 Q
b0 F"
b100 R
b100 u
b100 E"
b1010 M
b1010 H"
b10 N
b10 t
b10 G"
b101 K
b101 J"
b1 L
b1 s
b1 I"
b1 l
b10000000010000 k
b11010001000001000001000000000000 f
b11010001000001000001000000000000 r
b1101 B
1?
#140000
0?
#145000
b101000 0"
b101 Z
b101 q
b101 [
b101 o
b101 y
b1010 \
b1010 n
b1010 T
b1010 @"
b1010000 ."
b10 l
b101 d
b1010 b
b1010 x
b1110 B
1?
#150000
0?
#155000
b101 P
b101 C"
b101 V
b101 ?"
1O
b100 l
b101 c
b1111 B
1?
#160000
0?
#165000
b101 Q
b101 F"
0O
b0 l
b10000 B
1?
#170000
0?
#175000
b110010 Z
b110010 q
b11100 S
b11100 p
b11100 v
b11100 z
b0 Q
b0 F"
b101 R
b101 u
b101 E"
b101 M
b101 H"
b1 N
b1 t
b1 G"
b1010 K
b1010 J"
b10 L
b10 s
b10 I"
b1 l
b10000000010100 k
b11100001010000100010000000000000 f
b11100001010000100010000000000000 r
b10001 B
1?
#180000
0?
#185000
b1010000 0"
b1010 [
b1010 o
b1010 y
b101 \
b101 n
b101 T
b101 @"
b101000 ."
b10 l
b1010 d
b101 b
b101 x
b10010 B
1?
#190000
0?
#195000
b110010 P
b110010 C"
b110010 V
b110010 ?"
1O
b100 l
b110010 c
b10011 B
1?
#200000
0?
#205000
b110010 Q
b110010 F"
0O
b0 l
b10100 B
1?
#210000
0?
#215000
b0 Z
b0 q
b11101 S
b11101 p
b11101 v
b11101 z
b0 Q
b0 F"
b110 R
b110 u
b110 E"
b1010 M
b1010 H"
b10 N
b10 t
b10 G"
b101 K
b101 J"
b1 L
b1 s
b1 I"
b1 l
b10000000011000 k
b11101001100001000001000000000000 f
b11101001100001000001000000000000 r
b10101 B
1?
#220000
0?
#225000
b101000 0"
b10 Z
b10 q
b101 [
b101 o
b101 y
b1010 \
b1010 n
b1010 T
b1010 @"
b1010000 ."
b10 l
b101 d
b1010 b
b1010 x
b10110 B
1?
#230000
0?
#235000
b10 P
b10 C"
b10 V
b10 ?"
1O
b100 l
b10 c
b10111 B
1?
#240000
0?
#245000
b10 Q
b10 F"
0O
b0 l
b11000 B
1?
#250000
0?
#255000
b0 Z
b0 q
b0 S
b0 p
b0 v
b0 z
b0 Q
b0 F"
b111 R
b111 u
b111 E"
b101 M
b101 H"
b1 N
b1 t
b1 G"
b1010 K
b1010 J"
b10 L
b10 s
b10 I"
b1 l
b10000000011100 k
b1110000100010000000000000 f
b1110000100010000000000000 r
b11001 B
1?
#260000
0?
#265000
b1010000 0"
b1010 [
b1010 o
b1010 y
b101 \
b101 n
b101 T
b101 @"
b101000 ."
b10 l
b1010 d
b101 b
b101 x
b11010 B
1?
#270000
0?
#275000
b0 P
b0 C"
b0 V
b0 ?"
1O
b100 l
b0 c
b11011 B
1?
#280000
0?
#285000
0O
b0 l
b11100 B
1?
#290000
0?
#295000
b1111 Z
b1111 q
b1 S
b1 p
b1 v
b1 z
b1000 R
b1000 u
b1000 E"
b1 l
b10000000100000 k
b1010000000100010000000000000 f
b1010000000100010000000000000 r
b11101 B
1?
#300000
0?
#305000
b10 l
b11110 B
1?
#310000
0?
#315000
b1111 P
b1111 C"
b1111 V
b1111 ?"
1O
b100 l
b1111 c
b11111 B
1?
#320000
0?
#325000
b1111 Q
b1111 F"
0O
b0 l
b100000 B
1?
#330000
0?
#335000
b10 S
b10 p
b10 v
b10 z
b0 Q
b0 F"
b1001 R
b1001 u
b1001 E"
b1 l
b10000000100100 k
b10010010000100010000000000000 f
b10010010000100010000000000000 r
b100001 B
1?
#340000
0?
#345000
b10 l
b100010 B
1?
#350000
0?
#355000
1O
b100 l
b100011 B
1?
#360000
0?
#365000
b1111 Q
b1111 F"
0O
b0 l
b100100 B
1?
#370000
0?
#375000
b1111111111111111111111111111111111111111111111111111111111111010 Z
b1111111111111111111111111111111111111111111111111111111111111010 q
b11 S
b11 p
b11 v
b11 z
b0 Q
b0 F"
b1010 R
b1010 u
b1010 E"
b0 K
b0 J"
b0 L
b0 s
b0 I"
b1 l
b10000000101000 k
b11010100000100000000000000000 f
b11010100000100000000000000000 r
b100101 B
1?
#380000
0?
#385000
1&"
b0 0"
b0 [
b0 o
b0 y
b10 l
b0 d
b100110 B
1?
#390000
0?
#395000
b1111111111111111111111111111111111111111111111111111111111111010 P
b1111111111111111111111111111111111111111111111111111111111111010 C"
b1111111111111111111111111111111111111111111111111111111111111010 V
b1111111111111111111111111111111111111111111111111111111111111010 ?"
1O
b100 l
b1111111111111111111111111111111111111111111111111111111111111010 c
b100111 B
1?
#400000
0?
#405000
b1111111111111111111111111111111111111111111111111111111111111010 Q
b1111111111111111111111111111111111111111111111111111111111111010 F"
0O
b0 l
b101000 B
1?
#410000
0?
#415000
0&"
b10000 0"
b10 [
b10 o
b10 y
1H
b0 \
b0 n
1G
b0 Z
b0 q
b111 S
b111 p
b111 v
b111 z
b101 Q
b101 F"
b1 R
b1 u
b1 E"
b0 M
b0 H"
b0 N
b0 t
b0 G"
b10 X
b10 w
b1 l
b10000000101100 k
b111000010000000000000000000010 f
b111000010000000000000000000010 r
b101001 B
1?
#420000
0?
#425000
b10100 Z
b10100 q
b101 \
b101 n
b0 T
b0 @"
1#"
b0 ."
b10 l
b101 h
b0 b
b0 x
b101010 B
1?
#430000
0?
#435000
b10100 P
b10100 C"
b10100 V
b10100 ?"
1O
b100 l
b10100 c
b101011 B
1?
#440000
0?
#445000
b10100 Q
b10100 F"
0O
b0 l
b101100 B
1?
#450000
0?
#455000
0&"
1H
b1000 0"
b1 [
b1 o
b1 y
b10 Z
b10 q
b101 S
b101 p
b101 v
b101 z
b1010 Q
b1010 F"
b10 R
b10 u
b10 E"
b1 X
b1 w
b1 l
b10000000110000 k
b101000100000000000000000000001 f
b101000100000000000000000000001 r
b101101 B
1?
#460000
0?
#465000
b101 Z
b101 q
b1010 \
b1010 n
b10 l
b1010 h
b101110 B
1?
#470000
0?
#475000
b101 P
b101 C"
b101 V
b101 ?"
1O
b100 l
b101 c
b101111 B
1?
#480000
0?
#485000
b101 Q
b101 F"
0O
b0 l
b110000 B
1?
#490000
0?
#495000
1%"
b11111111111111111111111111111111111111111101010111100000 0"
b11111111111 )"
b11111111111 +"
1;"
b101010111100 P
b101010111100 C"
b1111111111111111111111111111111111111111111111111111101010111100 [
b1111111111111111111111111111111111111111111111111111101010111100 o
b1111111111111111111111111111111111111111111111111111101010111100 y
b101010111100 Z
b101010111100 q
b10010 S
b10010 p
b10010 v
b10010 z
b0 Q
b0 F"
b1011 R
b1011 u
b1011 E"
b101010111100 X
b101010111100 w
b1 l
b10000000110100 k
b10010010110000000000101010111100 f
b10010010110000000000101010111100 r
b110001 B
1?
#500000
0?
#505000
b0 \
b0 n
b10 l
b0 h
b110010 B
1?
#510000
0?
#515000
b101010111100 V
b101010111100 ?"
1O
b100 l
b101010111100 c
b110011 B
1?
#520000
0?
#525000
b101010111100 Q
b101010111100 F"
0O
b0 l
b110100 B
1?
#530000
0?
#535000
1&"
0%"
b0 0"
b1 )"
b0 +"
0;"
0H
b0 [
b0 o
b0 y
b0 P
b0 C"
0G
b0 Z
b0 q
b10001 S
b10001 p
b10001 v
b10001 z
b0 Q
b0 F"
b1100 R
b1100 u
b1100 E"
b10100 M
b10100 H"
b1 N
b1 t
b1 G"
b0 X
b0 w
b1 l
b10000000111000 k
b10001011000000100000000000000000 f
b10001011000000100000000000000000 r
b110101 B
1?
#540000
0?
#545000
b10100 Z
b10100 q
b10100 \
b10100 n
b10100 T
b10100 @"
b10100 P
b10100 C"
0#"
b10100000 ."
b10 l
b10100 b
b10100 x
b110110 B
1?
#550000
0?
#555000
b10100 V
b10100 ?"
1O
b100 l
b10100 c
b110111 B
1?
#560000
0?
#565000
b10100 Q
b10100 F"
0O
b0 l
b111000 B
1?
#570000
0?
#575000
b0 \
b0 n
1G
b100000000 Z
b100000000 q
0&"
b100000000000 0"
b100000000 [
b100000000 o
b100000000 y
1H
b10011 S
b10011 p
b10011 v
b10011 z
b0 Q
b0 F"
b0 R
b0 u
b0 E"
b1100 N
b1100 t
b1100 G"
b100000000 X
b100000000 w
b1 l
b10000000111100 k
b10011000000110000000000100000000 f
b10011000000110000000000100000000 r
b111001 B
1?
#580000
0?
#585000
b10 l
b111010 B
1?
#590000
0?
#595000
b100000000 P
b100000000 C"
1E
b100000000 V
b100000000 ?"
b11 l
b100000000 c
b111011 B
1?
#600000
0?
#605000
0E
b0 l
b111100 B
1?
#610000
0?
#615000
b10100 \
b10100 n
0G
bx P
bx C"
b100010100 Z
b100010100 q
0&"
b100000000000 0"
b100000000 [
b100000000 o
b100000000 y
1H
b10000 S
b10000 p
b10000 v
b10000 z
b1101 R
b1101 u
b1101 E"
b0 M
b0 H"
b0 N
b0 t
b0 G"
b1 l
b10000001000000 k
b10000011010000000000000100000000 f
b10000011010000000000000100000000 r
b111101 B
1?
#620000
0?
#625000
b100000000 Z
b100000000 q
b0 \
b0 n
b0 T
b0 @"
1#"
b0 ."
b10 l
b0 b
b0 x
b111110 B
1?
#630000
0?
#635000
b10100 U
b10100 A"
1D
b11 l
b111111 B
1?
#640000
0?
#645000
b10100 P
b10100 C"
b0 U
b0 A"
0D
1O
b100 l
b10100 g
b1000000 B
1?
#650000
0?
#655000
0O
b0 l
b10100 Q
b10100 F"
b1000001 B
1?
#660000
0?
#665000
1&"
b100000000 P
b100000000 C"
0H
b0 0"
b10000001001000 i
1m
b0 [
b0 o
b0 y
1W
b0 Z
b0 q
b1010 S
b1010 p
b1010 v
b1010 z
b0 Q
b0 F"
b0 R
b0 u
b0 E"
b1000 X
b1000 w
b1 l
b10000001000100 k
b1010000000000000000000000001000 f
b1010000000000000000000000001000 r
b1000010 B
1?
#670000
0?
#675000
b10 l
b1000011 B
1?
#680000
0?
#685000
b0 P
b0 C"
b10000001001100 i
1m
b0 V
b0 ?"
b0 l
b10000001001000 k
b0 c
b1000100 B
1?
#690000
0?
#695000
b1000001000 Z
b1000001000 q
0&"
b1000001000000 0"
b1000001000 [
b1000001000 o
b1000001000 y
1H
1G
0W
b0 i
0m
b11001 S
b11001 p
b11001 v
b11001 z
b10110 R
b10110 u
b10110 E"
b1000001000 X
b1000001000 w
b1 l
b10000001001100 k
b11001101100000000000001000001000 f
b11001101100000000000001000001000 r
b1000101 B
1?
#700000
0?
#705000
b10 l
b1000110 B
1?
#710000
0?
#715000
b1000001000 P
b1000001000 C"
b1000001000 V
b1000001000 ?"
1O
b100 l
b1000001000 c
b1000111 B
1?
#720000
0?
#725000
b1000001000 Q
b1000001000 F"
0O
b0 l
b1001000 B
1?
#730000
0?
#735000
b100000 0"
b100 [
b100 o
b100 y
b0 Z
b0 q
b111 S
b111 p
b111 v
b111 z
b100 X
b100 w
b1 l
b10000001010000 k
b111101100000000000000000000100 f
b111101100000000000000000000100 r
b1001001 B
1?
#740000
0?
#745000
b10000010000000 Z
b10000010000000 q
b1000001000 \
b1000001000 n
b10 l
b1000001000 h
b1001010 B
1?
#750000
0?
#755000
b10000010000000 P
b10000010000000 C"
b10000010000000 V
b10000010000000 ?"
1O
b100 l
b10000010000000 c
b1001011 B
1?
#760000
0?
#765000
b10000010000000 Q
b10000010000000 F"
0O
b0 l
b1001100 B
1?
#770000
0?
#775000
0&"
1H
b1000001000 \
b1000001000 n
b1000000 0"
1G
b1000 [
b1000 o
b1000 y
b1000010000 Z
b1000010000 q
b11001 S
b11001 p
b11001 v
b11001 z
b1000 X
b1000 w
b1 l
b10000001010100 k
b11001101100000000000000000001000 f
b11001101100000000000000000001000 r
b1001101 B
1?
#780000
0?
#785000
b10000010001000 Z
b10000010001000 q
b10000010000000 \
b10000010000000 n
b10 l
b10000010000000 h
b1001110 B
1?
#790000
0?
#795000
b10000010001000 P
b10000010001000 C"
b10000010001000 V
b10000010001000 ?"
1O
b100 l
b10000010001000 c
b1001111 B
1?
#800000
0?
#805000
b10000010001000 Q
b10000010001000 F"
0O
b0 l
b1010000 B
1?
#810000
0?
#815000
0H
b0 \
b0 n
0G
1&"
b0 0"
b10000010000000 i
1m
b1111111111111111000 V
b1111111111111111000 ?"
b0 [
b0 o
b0 y
1W
b10000001011000 T
b10000001011000 @"
b0 Z
b0 q
b1100 S
b1100 p
b1100 v
b1100 z
b0 X
b0 w
b1 l
b10000001011000 k
b1100101100000000000000000000000 f
b1100101100000000000000000000000 r
b1010001 B
1?
#820000
0?
#825000
b10000010001000 i
1m
b10 l
b10000010001000 h
b1010010 B
1?
#830000
0?
#835000
b0 P
b0 C"
1E
b10000010001000 i
1m
b10000010001000 T
b10000010001000 @"
b11 l
b10000010001000 k
b0 c
b1010011 B
1?
#840000
0?
#845000
0E
b0 l
b1010100 B
1?
#850000
0?
#855000
0&"
b100010001000 0"
b100010001 [
b100010001 o
b100010001 y
b10000110011001 Z
b10000110011001 q
1H
b10000010001000 \
b10000010001000 n
1G
b0 V
b0 ?"
0W
b0 i
0m
b0 T
b0 @"
b11001 S
b11001 p
b11001 v
b11001 z
b0 Q
b0 F"
b10101 R
b10101 u
b10101 E"
b100010001 X
b100010001 w
b1 l
b10000010001100 k
b11001101010000000000000100010001 f
b11001101010000000000000100010001 r
b1010101 B
1?
#860000
0?
#865000
b100010001 Z
b100010001 q
b0 \
b0 n
b10 l
b0 h
b1010110 B
1?
#870000
0?
#875000
b100010001 P
b100010001 C"
b100010001 V
b100010001 ?"
1O
b100 l
b100010001 c
b1010111 B
1?
#880000
0?
#885000
b100010001 Q
b100010001 F"
0O
b0 l
b1011000 B
1?
#890000
0?
#895000
0H
0G
1&"
b0 0"
b1111111111111111000 V
b1111111111111111000 ?"
b0 [
b0 o
b0 y
1W
b0 Z
b0 q
b1101 S
b1101 p
b1101 v
b1101 z
b0 Q
b0 F"
b0 R
b0 u
b0 E"
b0 X
b0 w
b1 l
b10000010010000 k
b1101000000000000000000000000000 f
b1101000000000000000000000000000 r
b1011001 B
1?
#900000
0?
#905000
b10 l
b1011010 B
1?
#910000
0?
#915000
b0 P
b0 C"
b10000010001000 U
b10000010001000 A"
1D
b11 l
b0 c
b1011011 B
1?
#920000
0?
#925000
b0 U
b0 A"
0D
b0 l
b10000010001000 k
b10000010001000 g
b1011100 B
1?
#930000
0?
#935000
b100010001 Z
b100010001 q
0&"
b100010001000 0"
b100010001 [
b100010001 o
b100010001 y
1H
1G
b0 V
b0 ?"
0W
b11001 S
b11001 p
b11001 v
b11001 z
b100010001 Q
b100010001 F"
b10101 R
b10101 u
b10101 E"
b100010001 X
b100010001 w
b1 l
b10000010001100 k
b11001101010000000000000100010001 f
b11001101010000000000000100010001 r
b1011101 B
1?
#940000
0?
#945000
b1000100010 Z
b1000100010 q
b100010001 \
b100010001 n
b10 l
b100010001 h
b1011110 B
1?
#950000
0?
#955000
b1000100010 P
b1000100010 C"
b1000100010 V
b1000100010 ?"
1O
b100 l
b1000100010 c
b1011111 B
1?
#960000
0?
#965000
b1000100010 Q
b1000100010 F"
0O
b0 l
b1100000 B
1?
#970000
0?
#975000
0H
b0 \
b0 n
0G
1&"
b0 0"
b1111111111111111000 V
b1111111111111111000 ?"
b0 [
b0 o
b0 y
1W
b0 Z
b0 q
b1101 S
b1101 p
b1101 v
b1101 z
b0 Q
b0 F"
b0 R
b0 u
b0 E"
b0 X
b0 w
b1 l
b10000010010000 k
b1101000000000000000000000000000 f
b1101000000000000000000000000000 r
b1100001 B
1?
#980000
0?
#985000
b10 l
b0 h
b1100010 B
1?
#990000
0?
#995000
b0 P
b0 C"
b10000010001000 U
b10000010001000 A"
1D
b11 l
b0 c
b1100011 B
1?
#1000000
0?
#1005000
b0 U
b0 A"
0D
b0 l
b10000010001000 k
b1100100 B
1?
#1010000
0?
#1015000
b100010001 Z
b100010001 q
0&"
b100010001000 0"
b100010001 [
b100010001 o
b100010001 y
1H
1G
b0 V
b0 ?"
0W
b11001 S
b11001 p
b11001 v
b11001 z
b1000100010 Q
b1000100010 F"
b10101 R
b10101 u
b10101 E"
b100010001 X
b100010001 w
b1 l
b10000010001100 k
b11001101010000000000000100010001 f
b11001101010000000000000100010001 r
b1100101 B
1?
#1020000
0?
#1025000
b1100110011 Z
b1100110011 q
b1000100010 \
b1000100010 n
b10 l
b1000100010 h
b1100110 B
1?
#1030000
0?
#1035000
b1100110011 P
b1100110011 C"
b1100110011 V
b1100110011 ?"
1O
b100 l
b1100110011 c
b1100111 B
1?
#1040000
0?
#1045000
b1100110011 Q
b1100110011 F"
0O
b0 l
b1101000 B
1?
#1050000
0?
#1055000
0H
b0 \
b0 n
0G
1&"
b0 0"
b1111111111111111000 V
b1111111111111111000 ?"
b0 [
b0 o
b0 y
1W
b0 Z
b0 q
b1101 S
b1101 p
b1101 v
b1101 z
b0 Q
b0 F"
b0 R
b0 u
b0 E"
b0 X
b0 w
b1 l
b10000010010000 k
b1101000000000000000000000000000 f
b1101000000000000000000000000000 r
b1101001 B
1?
#1060000
0?
#1065000
b10 l
b0 h
b1101010 B
1?
#1070000
0?
#1075000
b0 P
b0 C"
b10000010001000 U
b10000010001000 A"
1D
b11 l
b0 c
b1101011 B
1?
#1080000
0?
#1085000
b0 U
b0 A"
0D
b0 l
b10000010001000 k
b1101100 B
1?
#1090000
0?
#1095000
b100010001 Z
b100010001 q
0&"
b100010001000 0"
b100010001 [
b100010001 o
b100010001 y
1H
1G
b0 V
b0 ?"
0W
b11001 S
b11001 p
b11001 v
b11001 z
b1100110011 Q
b1100110011 F"
b10101 R
b10101 u
b10101 E"
b100010001 X
b100010001 w
b1 l
b10000010001100 k
b11001101010000000000000100010001 f
b11001101010000000000000100010001 r
b1101101 B
1?
#1100000
0?
#1105000
b10001000100 Z
b10001000100 q
b1100110011 \
b1100110011 n
b10 l
b1100110011 h
b1101110 B
1?
#1110000
0?
#1115000
b10001000100 P
b10001000100 C"
b10001000100 V
b10001000100 ?"
1O
b100 l
b10001000100 c
b1101111 B
1?
#1120000
0?
#1125000
b10001000100 Q
b10001000100 F"
0O
b0 l
b1110000 B
1?
#1130000
0?
#1135000
0H
b0 \
b0 n
0G
1&"
b0 0"
b1111111111111111000 V
b1111111111111111000 ?"
b0 [
b0 o
b0 y
1W
b0 Z
b0 q
b1101 S
b1101 p
b1101 v
b1101 z
b0 Q
b0 F"
b0 R
b0 u
b0 E"
b0 X
b0 w
b1 l
b10000010010000 k
b1101000000000000000000000000000 f
b1101000000000000000000000000000 r
b1110001 B
1?
#1140000
0?
#1145000
b10 l
b0 h
b1110010 B
1?
#1150000
0?
#1155000
b0 P
b0 C"
b10000010001000 U
b10000010001000 A"
1D
b11 l
b0 c
b1110011 B
1?
#1160000
0?
#1165000
b0 U
b0 A"
0D
b0 l
b10000010001000 k
b1110100 B
1?
#1170000
0?
