tinker_internals.vcd
$date
	Wed Apr 15 20:00:22 2026
$end
$version
	Icarus Verilog
$end
$timescale
	1ps
$end
$scope module tb_tinker_2 $end
$var reg 1 ! clk $end
$var reg 1 " reset $end
$var integer 32 # passed_tests [31:0] $end
$var integer 32 $ total_tests [31:0] $end
$scope module uut $end
$var wire 1 ! clk $end
$var wire 1 % mem_read $end
$var wire 1 & mem_write $end
$var wire 64 ' r31_val [63:0] $end
$var wire 1 " reset $end
$var wire 1 ( uses_rd_as_a $end
$var wire 1 ) use_immediate $end
$var wire 1 * use_fpu_instruction $end
$var wire 64 + stack_addr [63:0] $end
$var wire 64 , rt_val [63:0] $end
$var wire 5 - rt [4:0] $end
$var wire 64 . rs_val [63:0] $end
$var wire 5 / rs [4:0] $end
$var wire 1 0 reg_write_en $end
$var wire 64 1 reg_write_data [63:0] $end
$var wire 64 2 rd_val [63:0] $end
$var wire 5 3 rd [4:0] $end
$var wire 5 4 opcode [4:0] $end
$var wire 64 5 mem_wdata [63:0] $end
$var wire 64 6 mem_read_data [63:0] $end
$var wire 64 7 mem_addr [63:0] $end
$var wire 1 8 is_branch $end
$var wire 12 9 imm [11:0] $end
$var wire 64 : fpu_res [63:0] $end
$var wire 64 ; alu_res [63:0] $end
$var wire 64 < alu_input_b [63:0] $end
$var wire 64 = alu_input_a [63:0] $end
$var parameter 3 > DECODE $end
$var parameter 3 ? EXEC $end
$var parameter 3 @ FETCH $end
$var parameter 3 A MEM $end
$var parameter 3 B WB $end
$var reg 64 C A [63:0] $end
$var reg 64 D ALUOut [63:0] $end
$var reg 64 E B [63:0] $end
$var reg 64 F FPUOut [63:0] $end
$var reg 32 G IR [31:0] $end
$var reg 64 H MDR [63:0] $end
$var reg 64 I RD_LATCH [63:0] $end
$var reg 64 J branch_target [63:0] $end
$var reg 1 K hlt $end
$var reg 64 L pc [63:0] $end
$var reg 3 M state [2:0] $end
$var reg 1 N take_branch $end
$scope module alu $end
$var wire 64 O a [63:0] $end
$var wire 64 P b [63:0] $end
$var wire 5 Q op [4:0] $end
$var reg 64 R res [63:0] $end
$upscope $end
$scope module decoder $end
$var wire 32 S instruction [31:0] $end
$var wire 1 8 is_branch $end
$var wire 1 * use_fpu_instruction $end
$var wire 1 ) use_immediate $end
$var wire 5 T rt [4:0] $end
$var wire 5 U rs [4:0] $end
$var wire 5 V rd [4:0] $end
$var wire 5 W opcode [4:0] $end
$var wire 12 X imm [11:0] $end
$upscope $end
$scope module fpu $end
$var wire 64 Y a [63:0] $end
$var wire 64 Z b [63:0] $end
$var wire 5 [ op [4:0] $end
$var reg 1 \ G $end
$var reg 1 ] LSB $end
$var reg 1 ^ R $end
$var reg 1 _ S $end
$var reg 1 ` a_is_inf $end
$var reg 1 a a_is_nan $end
$var reg 1 b a_is_zero $end
$var reg 1 c b_is_inf $end
$var reg 1 d b_is_nan $end
$var reg 1 e b_is_zero $end
$var reg 108 f div_num [107:0] $end
$var reg 11 g eff_exp_a [10:0] $end
$var reg 11 h eff_exp_b [10:0] $end
$var reg 11 i exp_a [10:0] $end
$var reg 11 j exp_b [10:0] $end
$var reg 11 k exp_diff [10:0] $end
$var reg 11 l exp_res [10:0] $end
$var reg 56 m frac_a [55:0] $end
$var reg 57 n frac_add_res [56:0] $end
$var reg 56 o frac_b [55:0] $end
$var reg 53 p m_a [52:0] $end
$var reg 53 q m_b [52:0] $end
$var reg 107 r mul_shift_mask [106:0] $end
$var reg 57 s raw_div_res [56:0] $end
$var reg 107 t raw_mul_res [106:0] $end
$var reg 64 u res [63:0] $end
$var reg 1 v round_up $end
$var reg 6 w shift_amt [5:0] $end
$var reg 56 x shift_mask [55:0] $end
$var reg 1 y sign_a $end
$var reg 1 z sign_b $end
$var reg 1 { sign_res $end
$var reg 13 | signed_exp [12:0] $end
$var integer 32 } i [31:0] $end
$upscope $end
$scope module memory $end
$var wire 64 ~ addr [63:0] $end
$var wire 1 ! clk $end
$var wire 1 % mem_read $end
$var wire 1 & mem_write $end
$var wire 64 !" write_data [63:0] $end
$var wire 64 "" read_data [63:0] $end
$var parameter 32 #" MEM_SIZE $end
$upscope $end
$scope module reg_file $end
$var wire 1 ! clk $end
$var wire 64 $" data [63:0] $end
$var wire 64 %" r31_val [63:0] $end
$var wire 5 &" rd [4:0] $end
$var wire 64 '" rd_val [63:0] $end
$var wire 1 " reset $end
$var wire 5 (" rs [4:0] $end
$var wire 64 )" rs_val [63:0] $end
$var wire 5 *" rt [4:0] $end
$var wire 64 +" rt_val [63:0] $end
$var wire 1 0 write_enable $end
$var integer 32 ," i [31:0] $end
$upscope $end
$upscope $end
$scope task assert_eq $end
$var reg 64 -" actual [63:0] $end
$var reg 64 ." expected [63:0] $end
$var reg 256 /" test_name [255:0] $end
$upscope $end
$scope task write_inst $end
$var reg 64 0" addr [63:0] $end
$var reg 12 1" imm [11:0] $end
$var reg 32 2" inst [31:0] $end
$var reg 5 3" op [4:0] $end
$var reg 5 4" rd [4:0] $end
$var reg 5 5" rs [4:0] $end
$var reg 5 6" rt [4:0] $end
$upscope $end
$upscope $end
$enddefinitions $end
$comment Show the parameter values. $end
$dumpall
b10000000000000000000 #"
b100 B
b11 A
b0 @
b10 ?
b1 >
$end
#0
$dumpvars
b111 6"
b110 5"
b1000 4"
b1110 3"
b1110010000011000111000000000000 2"
b0 1"
b10000000001100 0"
bx /"
bx ."
bx -"
bx ,"
bx +"
bx *"
bx )"
bx ("
bx '"
bx &"
bx %"
bx $"
bx ""
bx !"
bx ~
bx }
bx |
x{
xz
xy
bx x
bx w
xv
bx u
bx t
bx s
bx r
bx q
bx p
bx o
bx n
bx m
bx l
bx k
bx j
bx i
bx h
bx g
bx f
xe
xd
xc
xb
xa
x`
x_
x^
x]
x\
bx [
bx Z
bx Y
bx X
bx W
bx V
bx U
bx T
bx S
bx R
bx Q
bx P
bx O
xN
bx M
bx L
xK
bx J
bx I
bx H
bx G
bx F
bx E
bx D
bx C
bx =
bx <
bx ;
bx :
bx 9
x8
bx 7
bx 6
bx 5
bx 4
bx 3
bx 2
bx 1
x0
bx /
bx .
bx -
bx ,
bx +
x*
x)
x(
bx '
x&
x%
b0 $
b0 #
1"
0!
$end
#5000
b0 6
b0 ""
b0 J
0N
0%
0&
b1111111111111111000 +
b10000000000000000000 '
b10000000000000000000 %"
b10000000000000 L
0K
00
b0 M
b11111 ,"
1!
#10000
0!
#12000
0"
#15000
0e
0c
0d
b1 h
b0 j
0z
b1111 <
b1111 P
b1111 Z
1)
0*
08
1(
b1111000 o
bx000 m
b0 :
b0 u
b11001 4
b11001 Q
b11001 W
b11001 [
b0 2
b0 '"
b1 3
b1 V
b1 &"
b0 .
b0 )"
b0 /
b0 U
b0 ("
b0 ,
b0 +"
b0 -
b0 T
b0 *"
b1111 9
b1111 X
b1 M
b10000000000100 L
b11001000010000000000000000001111 G
b11001000010000000000000000001111 S
1!
#16000
b100 #
b100 $
b110111101100100011001010111001000100000001001110111010101110011011001010101111101101001011011010110110101100101011001000110100101100001011101000110010100100111001000000100011001101100011000010110011100100000010000010110001101110100011010010111011001100101 /"
b1 -"
b1 ."
#20000
0!
#25000
b1111 ;
b1111 R
b0 =
b0 O
b0 5
b0 !"
1b
0`
0a
b0 m
b1 g
b0 i
0y
b10 M
b0 I
b0 E
b0 C
b0 Y
1!
#26000
b111 #
b111 $
b100000101001100010101010010000001100011011011110110110101110000011101010111010001100101011100110010000001100011011011110111001001110010011001010110001101110100001000000111001001100101011100110111010101101100011101000010000000101000001100010011010100101001 /"
b1111 -"
b1111 ."
#30000
0!
#35000
b1111 1
b1111 $"
b1111 7
b1111 ~
10
b100 M
b0 F
b1111 D
1!
#36000
b1001 #
b1001 $
b101011101110010011010010111010001100101001011010110001001100001011000110110101100100000010011010101010101011000001000000111001001101111011101010111010001100101011100110010000001000001010011000101010100100000011100100110010101110011011101010110110001110100 /"
b1111 -"
b1111 ."
#40000
0!
#45000
00
b0 M
b1111 2
b1111 '"
1!
#50000
0!
#55000
b1000 ;
b1000 R
b1000000 o
b1000 <
b1000 P
b1000 Z
b10011 4
b10011 Q
b10011 W
b10011 [
b11011110101011011011111011101111 .
b11011110101011011011111011101111 )"
b10 /
b10 U
b10 ("
b1000 9
b1000 X
b1 M
b10000000001000 L
b10011000010001000000000000001000 G
b10011000010001000000000000001000 S
1!
#60000
0!
#65000
b10111 ;
b10111 R
b1111 =
b1111 O
b11011110101011011011111011101111 5
b11011110101011011011111011101111 !"
0b
b11011110101011011011111011101111000 m
b10 M
b1111 I
b11011110101011011011111011101111 C
b11011110101011011011111011101111 Y
1!
#70000
0!
#75000
b10111 1
b10111 $"
1&
b10111 7
b10111 ~
b11 M
b10111 D
1!
#76000
b1101 #
b1101 $
b100110101010101010110000010000001100011011011110111001001110010011001010110001101110100011011000111100100100000011100100110111101110101011101000110010101110011001000000111001000110010001000000111010001101111001000000111011101100100011000010111010001100001 /"
b11011110101011011011111011101111 -"
b11011110101011011011111011101111 ."
#80000
0!
#85000
0&
b0 M
1!
#90000
0!
#95000
b11011110101011011011111011101111 =
b11011110101011011011111011101111 O
0(
b0 1
b0 $"
1e
b0 o
b0 <
b0 P
b0 Z
0)
1*
b0 ;
b0 R
b110111101010110110111110111011110 :
b110111101010110110111110111011110 u
0v
0_
0^
0\
0]
b11111111111111111111111111111111 }
b0 w
0{
b110111101010110110111110111011110000 n
b0 l
b10100 4
b10100 Q
b10100 W
b10100 [
b0 2
b0 '"
b101 3
b101 V
b101 &"
b11111111111000000000000000000000000000000000000000000000000000 .
b11111111111000000000000000000000000000000000000000000000000000 )"
b11 /
b11 U
b11 ("
b100000000000000000000000000000000000000000000000000000000000000 ,
b100000000000000000000000000000000000000000000000000000000000000 +"
b100 -
b100 T
b100 *"
b0 9
b0 X
b1 M
b10000000001100 L
b10100001010001100100000000000000 G
b10100001010001100100000000000000 S
1!
#100000
0!
#105000
b1 x
0e
b10000000000000000000000000000000000000000000000000000000 o
b10000000000 h
b10000000000 j
b100000000000000000000000000000000000000000000000000000000000000 <
b100000000000000000000000000000000000000000000000000000000000000 P
b100000000000000000000000000000000000000000000000000000000000000 Z
b11111111111000000000000000000000000000000000000000000000000000 =
b11111111111000000000000000000000000000000000000000000000000000 O
b11111111111000000000000000000000000000000000000000000000000000 5
b11111111111000000000000000000000000000000000000000000000000000 !"
b11111111111111111111111111111111 }
b11100000000000000000000000000000000000000000000000000000 n
b10000000000 l
b1 k
b1100000000000000000000000000000000000000000000000000000 m
b1111111111 g
b1111111111 i
b100000000001100000000000000000000000000000000000000000000000000 :
b100000000001100000000000000000000000000000000000000000000000000 u
b10 M
b0 I
b100000000000000000000000000000000000000000000000000000000000000 E
b11111111111000000000000000000000000000000000000000000000000000 C
b11111111111000000000000000000000000000000000000000000000000000 Y
1!
#110000
0!
#115000
b100000000001100000000000000000000000000000000000000000000000000 1
b100000000001100000000000000000000000000000000000000000000000000 $"
b0 7
b0 ~
10
b100 M
b100000000001100000000000000000000000000000000000000000000000000 F
b0 D
1!
#116000
b10000 #
b10000 $
b100110101010101010110000010000001110000011100100110111101110000011001010111001001101100011110010010000001110000011100100110100101101111011100100110100101110100011010010111101001100101011100110010000001000110010100000101010100100000011100100110010101110011 /"
b100000000001100000000000000000000000000000000000000000000000000 -"
b100000000001100000000000000000000000000000000000000000000000000 ."
#120000
0!
#125000
b100000000001100000000000000000000000000000000000000000000000000 2
b100000000001100000000000000000000000000000000000000000000000000 '"
00
b0 M
1!
#130000
0!
#135000
b0 1
b0 $"
0*
18
b11000000000000000000000000000000000000000000000000000000 m
b0 :
b0 u
b1110 4
b1110 Q
b1110 W
b1110 [
b11000000000000 2
b11000000000000 '"
b1000 3
b1000 V
b1000 &"
b1100100 .
b1100100 )"
b110 /
b110 U
b110 ("
b110010 ,
b110010 +"
b111 -
b111 T
b111 *"
b1 M
b10000000010000 L
b1110010000011000111000000000000 G
b1110010000011000111000000000000 S
1!
#140000
0!
#145000
b110010000 o
b1 h
b0 j
b110010 <
b110010 P
b110010 Z
b1100100 =
b1100100 O
b1100100 5
b1100100 !"
b1100100000 m
b1 g
b0 i
b11000000000000 J
1N
b10 M
b11000000000000 I
b110010 E
b1100100 C
b1100100 Y
1!
#146000
b10011 #
b10011 $
b110110001100011011101010110110001100001011101000110010101110011001000000111010001100001011100100110011101100101011101000010000001100001011001000110010001110010011001010111001101110011001000000010100000110000011110000011001100110000001100000011000000101001 /"
b11000000000000 -"
b11000000000000 ."
#150000
0!
#155000
b11000000000000 J
1N
b0 M
b11000000000000 L
b0 F
1!
#156000
b10100 #
b10100 $
b110001101110100011011000111100100100000011000010111000001110000011011000110100101100101011100110010000001100010011100100110000101101110011000110110100000100000011101000110000101110010011001110110010101110100001000000111010001101111001000000101000001000011 /"
